<svg width="74" height="28" viewBox="0 0 74 28" fill="none" xmlns="http://www.w3.org/2000/svg">
<path d="M49.1784 6.64026V19.2431C49.1784 19.3338 49.1423 19.4207 49.078 19.4848C49.0137 19.5488 48.9265 19.5848 48.8355 19.5848H46.2526C46.2073 19.5852 46.1625 19.5766 46.1206 19.5596C46.0787 19.5425 46.0406 19.5174 46.0085 19.4856C45.9764 19.4539 45.9509 19.4161 45.9335 19.3745C45.9161 19.3329 45.9072 19.2882 45.9072 19.2431V6.64026C45.9072 6.59518 45.9161 6.55054 45.9335 6.50892C45.9509 6.4673 45.9764 6.42952 46.0085 6.39776C46.0406 6.366 46.0787 6.34088 46.1206 6.32386C46.1625 6.30683 46.2073 6.29824 46.2526 6.29857H48.8355C48.9265 6.29857 49.0137 6.33457 49.078 6.39865C49.1423 6.46273 49.1784 6.54964 49.1784 6.64026ZM69.3091 6.29857H66.4182C66.3437 6.29865 66.2713 6.32309 66.2121 6.36815C66.1528 6.4132 66.1101 6.47638 66.0904 6.54798L63.8027 13.993L61.2999 6.538C61.276 6.47028 61.2317 6.41159 61.173 6.37004C61.1142 6.3285 61.044 6.30614 60.972 6.30605H58.9547C58.883 6.30629 58.8131 6.32874 58.7548 6.37031C58.6965 6.41187 58.6527 6.47048 58.6293 6.538L56.1264 13.993L53.8113 6.5405C53.7912 6.4691 53.7483 6.40616 53.6892 6.36117C53.63 6.31618 53.5578 6.29158 53.4834 6.29109H50.6001C50.5459 6.29085 50.4925 6.3034 50.4441 6.32772C50.3957 6.35204 50.3539 6.38742 50.3219 6.43098C50.2899 6.47454 50.2687 6.52502 50.2601 6.57831C50.2514 6.63159 50.2556 6.68616 50.2722 6.73754L54.5271 19.3479C54.5501 19.4156 54.5939 19.4744 54.6523 19.5161C54.7107 19.5577 54.7807 19.58 54.8525 19.5799H57.1476C57.2193 19.5796 57.2891 19.5572 57.3474 19.5156C57.4057 19.474 57.4496 19.4154 57.473 19.3479L59.9608 11.9802L62.4637 19.3479C62.4871 19.4154 62.5309 19.474 62.5892 19.5156C62.6475 19.5572 62.7174 19.5796 62.7891 19.5799H65.0742C65.1459 19.5796 65.2157 19.5572 65.274 19.5156C65.3323 19.474 65.3762 19.4154 65.3996 19.3479L69.6544 6.73754C69.6663 6.68607 69.6657 6.63251 69.6527 6.58132C69.6396 6.53013 69.6145 6.48278 69.5794 6.44323C69.549 6.39957 69.5086 6.3637 69.4616 6.33856C69.4147 6.31342 69.3624 6.29971 69.3091 6.29857ZM73.6565 6.29857H71.0811C71.0359 6.29824 70.991 6.30683 70.9491 6.32386C70.9072 6.34088 70.8691 6.366 70.837 6.39776C70.8049 6.42952 70.7794 6.4673 70.762 6.50892C70.7446 6.55054 70.7357 6.59518 70.7357 6.64026V19.2431C70.7357 19.2882 70.7446 19.3329 70.762 19.3745C70.7794 19.4161 70.8049 19.4539 70.837 19.4856C70.8691 19.5174 70.9072 19.5425 70.9491 19.5596C70.991 19.5766 71.0359 19.5852 71.0811 19.5848H73.6641C73.755 19.5848 73.8422 19.5488 73.9065 19.4848C73.9708 19.4207 74.007 19.3338 74.007 19.2431V6.64026C74.007 6.59476 73.9978 6.5497 73.9801 6.50775C73.9624 6.4658 73.9365 6.42779 73.9039 6.39596C73.8712 6.36414 73.8325 6.33912 73.7901 6.3224C73.7476 6.30567 73.7022 6.29757 73.6565 6.29857ZM44.413 19.1633C44.4533 19.1988 44.481 19.2463 44.4922 19.2987C44.5033 19.3512 44.4972 19.4058 44.4747 19.4545C44.4522 19.5032 44.4146 19.5434 44.3674 19.5691C44.3202 19.5948 44.266 19.6047 44.2127 19.5973H41.0466C40.9825 19.5975 40.9192 19.5835 40.8612 19.5563C40.8032 19.5291 40.752 19.4895 40.7112 19.4402L40.1756 18.7967C38.723 19.733 36.9742 20.1008 35.2658 19.8293C33.5574 19.5577 32.0101 18.6661 30.9218 17.326C29.8335 15.9859 29.2811 14.292 29.3709 12.5704C29.4606 10.8488 30.1863 9.22108 31.4081 8.0006C32.6299 6.78012 34.2616 6.05312 35.989 5.95954C37.7165 5.86595 39.4176 6.41238 40.765 7.49367C42.1124 8.57495 43.0109 10.1147 43.2874 11.8164C43.564 13.5182 43.1991 15.2618 42.263 16.7116L44.413 19.1633ZM38.1383 16.345L36.7542 14.6739C36.7212 14.635 36.7001 14.5875 36.6934 14.537C36.6866 14.4866 36.6945 14.4352 36.7161 14.3891C36.7377 14.3429 36.772 14.3039 36.8151 14.2766C36.8583 14.2493 36.9083 14.2348 36.9594 14.2349H39.8602C40.0021 13.8154 40.0748 13.3757 40.0755 12.933C40.0755 10.8504 38.5212 9.05459 36.3862 9.05459C34.2513 9.05459 32.697 10.8504 32.697 12.933C32.697 15.0156 34.2538 16.7839 36.3862 16.7839C36.9983 16.7895 37.6016 16.6384 38.1383 16.345ZM21.4666 19.0885C21.5467 19.6148 21.379 19.8367 21.2163 19.8367C21.0536 19.8367 20.8058 19.6247 20.5355 19.2032C20.2652 18.7817 20.1701 18.3128 20.3028 18.0734C20.3516 17.9898 20.431 17.9283 20.5243 17.9018C20.6176 17.8753 20.7176 17.8859 20.8033 17.9312C21.2463 18.0958 21.4215 18.7767 21.4666 19.0885ZM18.9988 20.2333C19.5344 20.6848 19.6971 21.231 19.4142 21.6001C19.3283 21.7062 19.2185 21.7906 19.0937 21.8465C18.9689 21.9024 18.8326 21.9282 18.6959 21.9218C18.3965 21.922 18.1067 21.8169 17.8775 21.625C17.3769 21.201 17.2467 20.5152 17.5646 20.1286C17.6357 20.0496 17.7236 19.9875 17.8219 19.9469C17.9203 19.9064 18.0265 19.8883 18.1328 19.8941C18.4523 19.9032 18.7586 20.0231 18.9988 20.2333ZM18.1027 24.5856C20.4079 24.5856 22.9083 25.3737 25.6764 27.828C25.9543 28.0774 26.3247 27.7681 26.0819 27.4638C23.3613 24.0319 20.8459 23.3809 18.3355 22.8297C15.267 22.1563 13.6877 20.4328 12.5864 18.5448C12.3686 18.1657 12.2635 18.2355 12.2635 18.7169C12.2409 19.4343 12.2912 20.1521 12.4137 20.8593C12.2886 20.8593 12.1634 20.8593 12.0383 20.8593C10.4648 20.8618 8.92605 20.3991 7.61665 19.5297C6.30726 18.6602 5.28613 17.4233 4.68252 15.9753C4.07891 14.5273 3.91995 12.9335 4.22575 11.3954C4.53156 9.85738 5.28839 8.44432 6.40044 7.3351C7.5125 6.22588 8.92979 5.47036 10.4729 5.16416C12.0161 4.85797 13.6157 5.01487 15.0693 5.61501C16.5229 6.21514 17.7652 7.23154 18.6389 8.53554C19.5125 9.83954 19.9784 11.3725 19.9774 12.9405C19.9785 13.2488 19.9617 13.5569 19.9273 13.8633C19.0896 13.7578 18.243 13.7419 17.4019 13.8159C17.1016 13.8408 17.1516 13.9805 17.3719 14.0229C19.9999 14.4968 21.8045 16.118 22.2175 19.0636C22.2194 19.0782 22.2259 19.0918 22.2359 19.1027C22.2458 19.1136 22.2589 19.1212 22.2734 19.1244C22.2878 19.1277 22.3029 19.1265 22.3166 19.1209C22.3303 19.1154 22.342 19.1058 22.3501 19.0935C23.7134 16.8222 24.2841 14.1652 23.973 11.5368C23.662 8.9084 22.4869 6.45649 20.6308 4.56347C18.7748 2.67045 16.3422 1.44277 13.7126 1.0719C11.0829 0.701038 8.40405 1.20785 6.09375 2.51328C3.78346 3.81871 1.97167 5.84937 0.940963 8.28852C-0.0897415 10.7277 -0.281403 13.4382 0.395874 15.9972C1.07315 18.5563 2.58128 20.8201 4.68504 22.4355C6.7888 24.0509 9.3699 24.927 12.0258 24.9273C13.7903 24.9273 15.5373 24.5856 18.1027 24.5856Z" fill="white"/>
</svg>
