<svg width="145" height="57" viewBox="0 0 145 57" fill="none" xmlns="http://www.w3.org/2000/svg">
<path fill-rule="evenodd" clip-rule="evenodd" d="M94.6172 9.83697H89.6849V15.8778C89.6837 16.3321 89.708 16.7862 89.7577 17.2378C89.7997 17.6107 89.9144 17.9718 90.0953 18.3007C90.2868 18.6013 90.5699 18.8327 90.903 18.9609C91.3602 19.1393 91.8491 19.2225 92.3397 19.2052C92.734 19.1968 93.1274 19.166 93.5182 19.1128C93.9185 19.079 94.3003 18.9299 94.6172 18.6837V23.3381C93.9908 23.5643 93.3396 23.715 92.6774 23.787C92.0178 23.8598 91.3548 23.8973 90.6912 23.8992C89.8106 23.9066 88.9324 23.8069 88.076 23.6021C87.3237 23.4229 86.6132 23.1 85.9839 22.6515C85.3833 22.2113 84.903 21.6279 84.587 20.9547C84.2267 20.1591 84.0524 19.2922 84.0772 18.4196V9.83697H80.4889V5.36742H84.0838V0H89.6915V5.36742H94.6238L94.6172 9.83697ZM66.5194 5.36742H61.1435V23.4767H66.7577V14.4584C66.7574 13.8844 66.795 13.3109 66.8703 12.7419C66.931 12.2274 67.0859 11.7284 67.3271 11.2696C67.5673 10.8351 67.9222 10.4744 68.3533 10.2265C68.894 9.94638 69.4988 9.8121 70.1077 9.83698C70.6981 9.8009 71.2841 9.95858 71.7761 10.2859C72.1623 10.585 72.4579 10.9849 72.6302 11.4413C72.8206 11.9362 72.9344 12.4571 72.9678 12.9861C73.0075 13.5495 73.0274 14.0909 73.0274 14.6102V23.4767H78.6284V13.5011C78.6347 12.367 78.5483 11.2343 78.3702 10.1143C78.2256 9.15032 77.8878 8.22527 77.3771 7.39424C76.882 6.61409 76.178 5.98752 75.3446 5.58529C74.263 5.10485 73.0851 4.87896 71.9019 4.92509C71.2698 4.91876 70.6403 5.00779 70.0349 5.18917C69.4987 5.34256 68.9846 5.56446 68.5055 5.84937C68.0788 6.10592 67.6891 6.41907 67.3469 6.78025C67.0502 7.0916 66.7984 7.44268 66.5988 7.82337H66.5194V5.36742ZM14.3558 22.9882C15.6865 22.3964 16.8523 21.49 17.7522 20.3474L13.8328 17.4755C13.3787 18.1011 12.8132 18.6382 12.1644 19.06C11.4643 19.4871 10.6542 19.7005 9.83396 19.674C8.82596 19.7051 7.84145 19.3669 7.06655 18.7233C6.30368 18.0644 5.78973 17.1652 5.61003 16.1749H18.646V14.4188C18.6633 13.0922 18.462 11.7719 18.0501 10.5104C17.6849 9.408 17.1068 8.38752 16.3486 7.50648C15.6096 6.67058 14.6876 6.01549 13.654 5.5919C12.5348 5.13555 11.3342 4.91094 10.1253 4.9317C8.77231 4.9144 7.42711 5.13797 6.15291 5.5919C4.96188 6.00718 3.86739 6.65844 2.93531 7.50648C2.02214 8.35126 1.29212 9.37356 0.790241 10.5104C0.252803 11.7428 -0.0157497 13.075 0.00239209 14.4188C-0.0278761 15.7646 0.229404 17.1014 0.757139 18.3404C1.25737 19.4781 1.98762 20.5007 2.90221 21.3443C3.83429 22.1923 4.92877 22.8436 6.11981 23.2588C7.39401 23.7128 8.73921 23.9363 10.0922 23.919C11.5641 23.9189 13.0185 23.6013 14.3558 22.9882ZM12.7934 11.063C12.9541 11.4801 13.0262 11.9259 13.0052 12.3722H5.64313C5.66227 11.9262 5.7703 11.4886 5.96092 11.0848C6.1416 10.6781 6.40282 10.3121 6.7289 10.0086C7.08662 9.68388 7.49901 9.42463 7.94709 9.2428C8.46275 9.03779 9.01407 8.93681 9.56913 8.94571C10.0335 8.92844 10.4964 9.00886 10.9276 9.18176C11.3587 9.35465 11.7486 9.61615 12.0717 9.94922C12.387 10.2667 12.6327 10.6459 12.7934 11.063ZM25.2268 5.36742H19.2021L26.6701 23.4767H32.6286L39.8053 5.36742H34.158L29.8744 17.6669H29.795L25.2268 5.36742ZM58.1112 20.3474C57.2127 21.4913 56.0465 22.398 54.7149 22.9882C53.3776 23.6013 51.9231 23.9189 50.4512 23.919C49.0983 23.9363 47.7531 23.7128 46.4789 23.2588C45.2886 22.8419 44.1944 22.1908 43.2613 21.3443C42.3467 20.5007 41.6164 19.4781 41.1162 18.3404C40.5975 17.0994 40.3493 15.7627 40.3879 14.4188C40.3698 13.075 40.6383 11.7428 41.1758 10.5104C41.6777 9.37356 42.4077 8.35126 43.3209 7.50648C44.254 6.65989 45.3482 6.00883 46.5385 5.5919C47.8127 5.13797 49.1579 4.9144 50.5108 4.9317C51.7219 4.91096 52.9247 5.13556 54.0462 5.5919C55.0774 6.01636 55.9971 6.6714 56.7342 7.50648C57.4948 8.38583 58.0731 9.4068 58.4356 10.5104C58.8475 11.7719 59.0488 13.0922 59.0315 14.4188V16.1749H45.9691C46.1488 17.1652 46.6627 18.0644 47.4256 18.7233C48.2005 19.3669 49.185 19.7051 50.193 19.674C51.0154 19.7006 51.8277 19.4873 52.5301 19.06C53.1754 18.6361 53.7384 18.0993 54.1919 17.4755L58.1112 20.3474ZM53.3709 12.3721C53.389 11.9256 53.3149 11.4801 53.1532 11.0633C52.9915 10.6465 52.7456 10.2673 52.4308 9.94922C52.1077 9.61614 51.7178 9.35465 51.2866 9.18176C50.8555 9.00886 50.3926 8.92843 49.9282 8.94571C49.3665 8.93417 48.8081 9.03519 48.2863 9.2428C47.8382 9.42462 47.4258 9.68388 47.0681 10.0086C46.7389 10.3123 46.4733 10.6781 46.2869 11.0848C46.1023 11.4907 45.9946 11.9272 45.9691 12.3721H53.3709ZM108.891 23.4767H114.274V5.36742H108.666V14.3857C108.669 14.9574 108.633 15.5287 108.56 16.0957C108.494 16.6108 108.335 17.1096 108.09 17.5679C107.853 18.0049 107.497 18.3665 107.064 18.611C106.523 18.8972 105.915 19.034 105.303 19.0071C104.714 19.0437 104.13 18.8859 103.641 18.5582C103.255 18.2576 102.957 17.8584 102.78 17.4029C102.589 16.9085 102.477 16.3871 102.449 15.858C102.41 15.299 102.39 14.7577 102.39 14.2339V5.36742H96.782V15.343C96.7783 16.4765 96.8602 17.6087 97.027 18.7299C97.1629 19.693 97.494 20.6185 98.0002 21.4499C98.4997 22.2338 99.2111 22.8609 100.053 23.2588C101.142 23.7378 102.326 23.9635 103.515 23.919C104.147 23.9254 104.777 23.8363 105.382 23.655C105.917 23.4991 106.431 23.2773 106.912 22.9948C107.333 22.7398 107.717 22.4264 108.05 22.0639C108.341 21.7427 108.598 21.3932 108.818 21.0208H108.891V23.4767ZM116.445 5.36743H121.821V7.82338H121.901C122.1 7.44269 122.352 7.09161 122.649 6.78026C122.991 6.41908 123.381 6.10593 123.807 5.84938C124.286 5.56447 124.8 5.34257 125.337 5.18918C125.942 5.0078 126.572 4.91877 127.204 4.9251C128.379 4.90377 129.542 5.17372 130.587 5.71074C131.589 6.24988 132.375 7.11726 132.811 8.16668C133.337 7.124 134.156 6.25676 135.168 5.67113C136.22 5.14463 137.388 4.88821 138.565 4.9251C139.627 4.89174 140.682 5.10179 141.65 5.53909C142.448 5.9147 143.133 6.49301 143.636 7.21599C144.141 7.9739 144.496 8.82091 144.682 9.71155C144.899 10.7226 145.006 11.7541 145 12.7881V23.4833H139.392V12.9201C139.412 12.157 139.227 11.4024 138.856 10.7349C138.649 10.4221 138.36 10.1719 138.02 10.0113C137.68 9.85066 137.303 9.78582 136.929 9.82378C136.369 9.80581 135.813 9.91413 135.301 10.1407C134.881 10.337 134.52 10.6398 134.255 11.0187C133.981 11.4167 133.792 11.866 133.698 12.3391C133.583 12.8528 133.526 13.3775 133.526 13.9038V23.4767H127.912V13.8972V12.7089C127.888 12.2583 127.799 11.8136 127.647 11.3885C127.504 10.97 127.253 10.5965 126.919 10.3057C126.499 9.98028 125.973 9.82047 125.443 9.85679C124.834 9.83192 124.229 9.9662 123.688 10.2463C123.256 10.4923 122.9 10.8534 122.662 11.2894C122.416 11.7473 122.257 12.2463 122.192 12.7617C122.117 13.3308 122.079 13.9042 122.079 14.4782V23.4767H116.478L116.445 5.36743ZM6.24562 29.9599H1.08819V56.5659H6.6892V46.1347H6.78851C7.40993 46.9853 8.27569 47.6276 9.27123 47.9767C10.3164 48.3368 11.4163 48.5133 12.5219 48.4983C13.7284 48.5174 14.9214 48.2433 15.9977 47.6994C17.0044 47.174 17.8887 46.4429 18.593 45.5538C19.3395 44.6316 19.9177 43.5858 20.3011 42.464C20.6879 41.2925 20.8824 40.0663 20.8771 38.8329C20.8831 37.5492 20.6589 36.2748 20.215 35.0698C19.8192 33.9688 19.2019 32.96 18.401 32.1055C17.6109 31.2664 16.649 30.6067 15.5806 30.1711C14.4175 29.7066 13.1721 29.482 11.9195 29.5109C11.2865 29.5069 10.6568 29.6004 10.0525 29.7882C9.50253 29.9503 8.97195 30.1717 8.47014 30.4484C8.01099 30.7023 7.58419 31.0104 7.19898 31.3661C6.86927 31.6599 6.57388 31.9899 6.31845 32.3498H6.24562V29.9599ZM7.41746 42.3188C6.61449 41.4104 6.19463 40.2277 6.24562 39.0178C6.196 37.8081 6.61569 36.6259 7.41746 35.7168C7.84701 35.2828 8.3645 34.9452 8.93536 34.7266C9.50623 34.508 10.1173 34.4134 10.7278 34.4492C11.3382 34.413 11.9494 34.5074 12.5204 34.726C13.0913 34.9446 13.6088 35.2824 14.038 35.7168C14.8398 36.6259 15.2595 37.8081 15.2099 39.0178C15.2609 40.2277 14.841 41.4104 14.038 42.3188C13.6088 42.7532 13.0913 43.091 12.5204 43.3096C11.9494 43.5282 11.3382 43.6226 10.7278 43.5864C10.1173 43.6221 9.50623 43.5276 8.93536 43.309C8.3645 43.0904 7.84701 42.7528 7.41746 42.3188ZM23.1744 29.9599H28.7754V32.8647H28.8549C29.352 31.8747 30.081 31.0187 30.9801 30.3692C31.9056 29.7814 32.9887 29.4889 34.0852 29.5307C34.4118 29.5307 34.7362 29.5439 35.0584 29.5703C35.3599 29.5897 35.659 29.6361 35.9522 29.709V34.8189C35.5664 34.6971 35.1727 34.6022 34.7737 34.535C34.3728 34.4732 33.9678 34.4423 33.5621 34.4426C32.692 34.4052 31.8242 34.5584 31.0198 34.8915C30.4287 35.1581 29.9291 35.592 29.5832 36.1393C29.2255 36.7243 28.9995 37.3798 28.9211 38.0605C28.8164 38.8749 28.7655 39.6954 28.7688 40.5164V48.0691H23.1744V29.9599ZM50.5638 47.5806C51.8963 46.9888 53.0642 46.0825 53.9667 44.9398L50.0407 42.0679C49.5908 42.6948 49.0272 43.2322 48.379 43.6524C47.6766 44.0797 46.8643 44.2931 46.0419 44.2664C45.0359 44.2977 44.0534 43.9594 43.2811 43.3157C42.515 42.6585 41.9984 41.7589 41.818 40.7673H54.8671V39.0178C54.8862 37.6885 54.6826 36.3653 54.2647 35.1028C53.9044 33.9996 53.3284 32.9786 52.5698 32.0989C51.8308 31.263 50.9088 30.6079 49.8752 30.1843C48.7558 29.7287 47.5554 29.5041 46.3465 29.5241C44.9936 29.5077 43.6485 29.7312 42.3741 30.1843C41.1822 30.5957 40.0856 31.2424 39.1499 32.0857C38.2328 32.9285 37.5002 33.9512 36.9982 35.0896C36.4826 36.3297 36.2172 37.6589 36.2172 39.0013C36.2172 40.3437 36.4826 41.6729 36.9982 42.913C37.4884 44.0571 38.2121 45.0869 39.1234 45.9367C40.0541 46.7832 41.1461 47.4344 42.3344 47.8513C43.6088 48.3044 44.9538 48.5279 46.3067 48.5115C47.7765 48.5112 49.2288 48.1936 50.5638 47.5806ZM49.008 35.662C49.1687 36.0791 49.2408 36.5249 49.2198 36.9712H41.818C41.8394 36.515 41.9472 36.067 42.1358 35.6508C42.3283 35.2556 42.5959 34.9013 42.9236 34.6077C43.28 34.2844 43.6899 34.0253 44.1352 33.8418C44.6595 33.6349 45.2199 33.5339 45.7837 33.5447C46.2481 33.5275 46.711 33.6079 47.1421 33.7808C47.5733 33.9537 47.9632 34.2152 48.2863 34.5482C48.6015 34.8657 48.8473 35.245 49.008 35.662ZM57.2374 29.9599H62.6199V32.4158H62.6927C62.8923 32.0351 63.1441 31.684 63.4408 31.3727C63.7844 31.013 64.1739 30.7 64.5994 30.4418C65.0793 30.1584 65.5932 29.9366 66.1288 29.7816C66.7342 29.6002 67.3637 29.5112 67.9958 29.5175C69.1714 29.4956 70.334 29.7656 71.3789 30.3032C72.3816 30.8423 73.1673 31.7097 73.6034 32.7591C74.129 31.7164 74.9481 30.8492 75.9604 30.2635C77.0126 29.7371 78.18 29.4806 79.3567 29.5175C80.4187 29.4842 81.4742 29.6942 82.4419 30.1315C83.24 30.5071 83.9249 31.0854 84.4281 31.8084C84.9352 32.5739 85.2882 33.4305 85.4675 34.3304C85.6848 35.3414 85.7913 36.373 85.7853 37.4069V48.1021H80.1843V37.5389C80.2033 36.7772 80.0158 36.0245 79.6414 35.3603C79.4361 35.0453 79.1476 34.7929 78.8077 34.6309C78.4677 34.469 78.0895 34.4038 77.7148 34.4426C77.1549 34.4246 76.5982 34.533 76.0862 34.7595C75.6665 34.9621 75.3062 35.269 75.0401 35.6508C74.7697 36.0503 74.5808 36.499 74.484 36.9712C74.3686 37.487 74.3109 38.014 74.3118 38.5425V48.1153H68.7108V38.4962C68.7108 38.1727 68.7108 37.77 68.6711 37.3013C68.646 36.8514 68.5591 36.4072 68.4129 35.9809C68.2646 35.5633 68.0116 35.1906 67.678 34.8982C67.2585 34.5716 66.7325 34.4116 66.2016 34.4492C65.5919 34.4229 64.9861 34.5597 64.4472 34.8453C64.0135 35.0899 63.6578 35.4514 63.421 35.8885C63.1761 36.3467 63.0168 36.8456 62.9509 37.3607C62.8754 37.9275 62.8378 38.4988 62.8384 39.0706V48.0691H57.2374V29.9599ZM88.983 35.1028C88.4448 36.3373 88.1763 37.6719 88.1951 39.0178C88.1789 40.3571 88.4474 41.6847 88.983 42.913C89.4816 44.0555 90.212 45.0827 91.1281 45.9301C92.0622 46.7754 93.1561 47.4263 94.3457 47.8447C96.8969 48.7427 99.6795 48.7427 102.231 47.8447C103.419 47.4278 104.511 46.7766 105.442 45.9301C106.36 45.0886 107.093 44.0656 107.593 42.9262C108.109 41.6861 108.374 40.3569 108.374 39.0145C108.374 37.6721 108.109 36.3429 107.593 35.1028C107.091 33.9644 106.359 32.9417 105.442 32.0989C104.511 31.2524 103.419 30.6012 102.231 30.1843C99.6795 29.2863 96.8969 29.2863 94.3457 30.1843C93.1561 30.6027 92.0622 31.2536 91.1281 32.0989C90.2149 32.9437 89.4849 33.966 88.983 35.1028ZM94.9812 42.3188C94.1734 41.4128 93.7508 40.229 93.8028 39.0178C93.7522 37.8068 94.1747 36.6235 94.9812 35.7168C95.8889 34.8994 97.0685 34.4468 98.2915 34.4468C99.5146 34.4468 100.694 34.8994 101.602 35.7168C102.408 36.6235 102.831 37.8068 102.78 39.0178C102.832 40.229 102.41 41.4128 101.602 42.3188C100.694 43.1362 99.5146 43.5888 98.2915 43.5888C97.0685 43.5888 95.8889 43.1362 94.9812 42.3188Z" fill="black"/>
</svg>
